\relax 
\@writefile{lot}{\contentsline {table}{\numberline {1}{\ignorespaces Speed benchmark results comparing OpenCL implementation of Coulomb’s Law simulation to sequential and OpenMP versions}}{2}}
\newlabel{table:results}{{1}{2}}
