\relax 
\@writefile{lot}{\contentsline {table}{\numberline {1}{\ignorespaces Benchmark results for raytrace unoptimized sequential execution}}{1}}
\newlabel{tbl-raytrace-unopt-sequential}{{1}{1}}
\@writefile{lot}{\contentsline {table}{\numberline {2}{\ignorespaces Benchmark results for raytrace optimized sequential execution}}{1}}
\newlabel{tbl-raytrace-opt-sequential}{{2}{1}}
\@writefile{lot}{\contentsline {table}{\numberline {3}{\ignorespaces Benchmark results for raytrace with automatic parallelization}}{1}}
\newlabel{tbl-raytrace-automatic}{{3}{1}}
\@writefile{lot}{\contentsline {table}{\numberline {4}{\ignorespaces Benchmark results for nQueens sequential execution ({\tt  n} = 13 \& 14)}}{2}}
\newlabel{tbl-nqueens-sequential}{{4}{2}}
\@writefile{lot}{\contentsline {table}{\numberline {5}{\ignorespaces Benchmark results for nQueens execution with OpenMP tasks ({\tt  n} = 13 \& 14) resulting in \textbf  {16.901x} and \textbf  {15.692x} speedups respectively}}{3}}
\newlabel{tbl-nqueens-tasks}{{5}{3}}
\@writefile{lot}{\contentsline {table}{\numberline {6}{\ignorespaces Benchmark results for particle position propagation with 4000 sample size resulting in \textbf  {8.295x} speedup}}{4}}
\newlabel{tbl-q3-omp}{{6}{4}}
