\relax 
\providecommand\hyper@newdestlabel[2]{}
\providecommand\HyperFirstAtBeginDocument{\AtBeginDocument}
\HyperFirstAtBeginDocument{\ifx\hyper@anchor\@undefined
\global\let\oldcontentsline\contentsline
\gdef\contentsline#1#2#3#4{\oldcontentsline{#1}{#2}{#3}}
\global\let\oldnewlabel\newlabel
\gdef\newlabel#1#2{\newlabelxx{#1}#2}
\gdef\newlabelxx#1#2#3#4#5#6{\oldnewlabel{#1}{{#2}{#3}}}
\AtEndDocument{\ifx\hyper@anchor\@undefined
\let\contentsline\oldcontentsline
\let\newlabel\oldnewlabel
\fi}
\fi}
\global\let\hyper@last\relax 
\gdef\HyperFirstAtBeginDocument#1{#1}
\providecommand\HyField@AuxAddToFields[1]{}
\providecommand\HyField@AuxAddToCoFields[2]{}
\@writefile{toc}{\contentsline {subsection}{\numberline {0.1}Thread Safety}{1}{subsection.0.1}}
\@writefile{toc}{\contentsline {subsection}{\numberline {0.2}Race Conditions}{2}{subsection.0.2}}
\@writefile{lot}{\contentsline {table}{\numberline {1}{\ignorespaces Sequential executions terminate in a mean of 21.6262522 seconds.}}{2}{table.1}}
\newlabel{tbl_sequential}{{1}{2}{Sequential executions terminate in a mean of 21.6262522 seconds}{table.1}{}}
\@writefile{lot}{\contentsline {table}{\numberline {2}{\ignorespaces Parallel executions terminate in a mean of 15.6985 seconds for 4 threads, and 30.3844 seconds for 64 threads.}}{3}{table.2}}
\newlabel{tbl_parallel}{{2}{3}{Parallel executions terminate in a mean of 15.6985 seconds for 4 threads, and 30.3844 seconds for 64 threads}{table.2}{}}
\@writefile{lot}{\contentsline {table}{\numberline {3}{\ignorespaces Non-blocking I/O executions terminate in a mean of $13.98136$ seconds for 4 open connections and $6.8759$ seconds for 64 open connections.}}{3}{table.3}}
\newlabel{tbl_nbio}{{3}{3}{Non-blocking I/O executions terminate in a mean of $13.98136$ seconds for 4 open connections and $6.8759$ seconds for 64 open connections}{table.3}{}}
\@writefile{toc}{\contentsline {paragraph}{Discussion.}{3}{section*.4}}
\@writefile{toc}{\contentsline {section}{\numberline {1}Appendix}{4}{section.1}}
\newlabel{sec:appendix}{{1}{4}{Appendix}{section.1}{}}
